ULA-origins/simulation/qsim/ULA-origins.msim.vcd
$comment
	File created using the following command:
		vcd file ULA-origins.msim.vcd -direction
$end
$date
	Thu Dec 11 23:54:47 2014
$end
$version
	ModelSim Version 10.1d
$end
$timescale
	1ps
$end
$scope module ula_of_infinity_vlg_vec_tst $end
$var reg 8 ! a [7:0] $end
$var reg 8 " b [7:0] $end
$var reg 4 # op [3:0] $end
$var wire 1 $ cout $end
$var wire 1 % overflow $end
$var wire 1 & result [7] $end
$var wire 1 ' result [6] $end
$var wire 1 ( result [5] $end
$var wire 1 ) result [4] $end
$var wire 1 * result [3] $end
$var wire 1 + result [2] $end
$var wire 1 , result [1] $end
$var wire 1 - result [0] $end
$var wire 1 . zero $end
$var wire 1 / sampler $end
$scope module i1 $end
$var wire 1 0 gnd $end
$var wire 1 1 vcc $end
$var wire 1 2 unknown $end
$var tri1 1 3 devclrn $end
$var tri1 1 4 devpor $end
$var tri1 1 5 devoe $end
$var wire 1 6 ula6|mux_ainvert|or_final~0_combout $end
$var wire 1 7 ula5|mux_binvert|or_final~0_combout $end
$var wire 1 8 ula4|mux_binvert|or_final~0_combout $end
$var wire 1 9 ula3|mux_binvert|or_final~0_combout $end
$var wire 1 : ula2|mux_binvert|or_final~0_combout $end
$var wire 1 ; ula0|adder|cout_or~0_combout $end
$var wire 1 < ula0|mux_binvert|or_final~0_combout $end
$var wire 1 = ula6|mux_binvert|or_final~0_combout $end
$var wire 1 > ula5|mux_ainvert|or_final~0_combout $end
$var wire 1 ? ula4|mux_ainvert|or_final~0_combout $end
$var wire 1 @ ula3|mux_ainvert|or_final~0_combout $end
$var wire 1 A ula2|mux_ainvert|or_final~0_combout $end
$var wire 1 B ula1|mux_binvert|or_final~0_combout $end
$var wire 1 C ula1|adder|big_or~1_cout $end
$var wire 1 D ula1|adder|big_or~3 $end
$var wire 1 E ula1|adder|big_or~5 $end
$var wire 1 F ula1|adder|big_or~7 $end
$var wire 1 G ula1|adder|big_or~9 $end
$var wire 1 H ula1|adder|big_or~11 $end
$var wire 1 I ula1|adder|big_or~13 $end
$var wire 1 J ula1|adder|big_or~14_combout $end
$var wire 1 K ula7|mux_binvert|or_final~0_combout $end
$var wire 1 L ula7|adder|cout_or~0_combout $end
$var wire 1 M ula0|mux|M2|or_final~1_combout $end
$var wire 1 N ula0|mux|M3|or_final~1_combout $end
$var wire 1 O ula0|mux|M1|or_final~0_combout $end
$var wire 1 P ula0|mux|M2|or_final~0_combout $end
$var wire 1 Q ula0|mux|M3|or_final~0_combout $end
$var wire 1 R ula0|mux|M3|or_final~2_combout $end
$var wire 1 S ula1|adder|big_or~2_combout $end
$var wire 1 T ula1|mux|M1|or_final~0_combout $end
$var wire 1 U ula1|mux|M3|or_final~0_combout $end
$var wire 1 V ula1|adder|big_or~4_combout $end
$var wire 1 W ula2|mux|M1|or_final~0_combout $end
$var wire 1 X ula2|mux|M3|or_final~0_combout $end
$var wire 1 Y ula1|adder|big_or~6_combout $end
$var wire 1 Z ula3|mux|M1|or_final~0_combout $end
$var wire 1 [ ula3|mux|M3|or_final~0_combout $end
$var wire 1 \ ula1|adder|big_or~8_combout $end
$var wire 1 ] ula4|mux|M1|or_final~0_combout $end
$var wire 1 ^ ula4|mux|M3|or_final~0_combout $end
$var wire 1 _ ula5|mux|M1|or_final~0_combout $end
$var wire 1 ` ula1|adder|big_or~10_combout $end
$var wire 1 a ula5|mux|M3|or_final~0_combout $end
$var wire 1 b ula1|adder|big_or~12_combout $end
$var wire 1 c ula6|mux|M1|or_final~0_combout $end
$var wire 1 d ula6|mux|M3|or_final~0_combout $end
$var wire 1 e ula7|mux|M3|or_final~1_combout $end
$var wire 1 f ula7|mux|M3|or_final~0_combout $end
$var wire 1 g ula7|mux|M3|or_final~2_combout $end
$var wire 1 h ula7|overflow_origins|xo1~combout $end
$var wire 1 i big_or~0_combout $end
$var wire 1 j big_or~1_combout $end
$var wire 1 k big_or~2_combout $end
$var wire 1 l big_or~combout $end
$var wire 1 m op~combout [3] $end
$var wire 1 n op~combout [2] $end
$var wire 1 o op~combout [1] $end
$var wire 1 p op~combout [0] $end
$var wire 1 q b~combout [7] $end
$var wire 1 r b~combout [6] $end
$var wire 1 s b~combout [5] $end
$var wire 1 t b~combout [4] $end
$var wire 1 u b~combout [3] $end
$var wire 1 v b~combout [2] $end
$var wire 1 w b~combout [1] $end
$var wire 1 x b~combout [0] $end
$var wire 1 y a~combout [7] $end
$var wire 1 z a~combout [6] $end
$var wire 1 { a~combout [5] $end
$var wire 1 | a~combout [4] $end
$var wire 1 } a~combout [3] $end
$var wire 1 ~ a~combout [2] $end
$var wire 1 !! a~combout [1] $end
$var wire 1 "! a~combout [0] $end
$upscope $end
$upscope $end
$enddefinitions $end
#0
$dumpvars
b0 !
b0 "
b0 #
0$
0%
0-
0,
0+
0*
0)
0(
0'
0&
1.
x/
00
11
x2
13
14
15
06
07
08
09
0:
0;
0<
0=
0>
0?
0@
0A
0B
0C
1D
0E
1F
0G
1H
0I
0J
0K
0L
0M
0N
0O
0P
0Q
0R
0S
0T
0U
0V
0W
0X
0Y
0Z
0[
0\
0]
0^
0_
0`
0a
0b
0c
0d
0e
0f
0g
0h
0i
0j
0k
0l
0p
0o
0n
0m
0x
0w
0v
0u
0t
0s
0r
0q
0"!
0!!
0~
0}
0|
0{
0z
0y
$end
#500000
b1 !
1"!
0/
1P
#1000000
b11 !
b1 "
b1 #
b10 !
1p
1x
0"!
1!!
1/
1T
1<
1C
1U
1O
1S
1j
1R
1,
1k
1-
1l
0.
#1500000
b11 !
1"!
0/
0P
1;
0D
0S
1V
#2000000
b111 !
b11 "
b11 #
b101 !
b10 "
b10 #
b100 !
0p
1o
0x
1w
0"!
0!!
1~
1/
1X
0U
0T
0O
0R
0<
0;
1B
0C
1A
1i
0j
1D
1S
1E
0V
1+
0,
0-
0k
0E
1V
1U
1Y
0X
0Y
1X
1j
1[
0i
1,
0+
0[
1i
1k
0l
1+
1*
1l
0*
1.
0.
#2500000
b101 !
1"!
0/
1P
1Q
1R
1-
#3000000
b111 !
b11 "
b11 #
b110 !
1p
1x
0"!
1!!
1/
0X
1W
0U
1T
0Q
1<
1C
0i
0j
0R
1O
0D
0S
0+
0,
0k
1E
0V
0-
0l
1Y
1.
#3500000
b111 !
1"!
0/
0P
1;
1S
#4000000
b1111 !
b111 "
b111 #
b1011 !
b101 "
b101 #
b1001 !
b100 "
b100 #
b1000 !
0p
0o
1n
0x
0w
1v
0"!
0!!
0~
1}
1/
1X
0W
1U
0T
0O
1j
1f
1R
1M
1K
1=
19
18
17
0C
0A
1@
1i
0X
0U
0R
1k
1b
1Z
0F
1\
1`
0S
0E
1V
1+
1,
1-
1l
0i
0j
1[
1G
0\
0Y
0+
0,
0-
0k
1i
0H
0`
1*
0.
1I
0b
1J
1L
1$
#4500000
b1001 !
1"!
0/
1P
1O
1j
1R
1k
1-
#5000000
b1011 !
b101 "
b101 #
b1010 !
1p
1x
0"!
1!!
1/
1g
1c
1_
1]
1T
0<
0;
1C
1d
1a
1^
1U
0O
1&
0R
1'
1(
1)
1,
0-
#5500000
b1011 !
1"!
0/
0P
1O
1;
1R
1S
1-
#6000000
b1111 !
b111 "
b111 #
b1101 !
b110 "
b110 #
b1100 !
0p
1o
0x
1w
0"!
0!!
1~
1/
0d
0c
0a
0_
0^
0]
0[
1X
0T
0O
1e
0R
1<
0B
0C
1A
0g
1D
1E
0V
0'
0(
0)
0*
1+
0-
0E
1V
1Y
0X
0&
0Y
1X
1[
0i
0+
0[
1i
1+
1*
0*
#6500000
b1101 !
1"!
0/
1P
1O
1Q
1R
1-
#7000000
b1111 !
b111 "
b111 #
b1110 !
1p
1x
0"!
1!!
1/
1c
1_
1]
0X
1W
0U
1T
0Q
0<
0;
1C
0i
0j
0R
0O
0+
0,
0k
0-
0l
1.
#7500000
b1111 !
1"!
0/
0P
1O
1;
0D
0S
1E
0V
1Y
#8000000
b11111 !
b1111 "
b1111 #
b10111 !
b1011 "
b1011 #
b10011 !
b1001 "
b1001 #
b10001 !
b1000 "
b1000 #
b10000 !
0p
0o
0n
1m
0x
0w
0v
1u
0"!
0!!
0~
0}
1|
1/
1g
1d
1a
1^
0]
1[
1X
0W
1U
0T
0O
1j
0f
1R
0K
0=
0;
08
07
1P
1>
16
1l
1i
1k
0^
0X
0U
0R
0g
0c
1D
1S
0G
1\
0_
1&
1'
1(
1)
1*
1+
1,
1-
0j
0d
0E
1V
1H
1`
0a
0)
0+
0,
0-
0&
0.
0k
0Y
0I
1b
0'
0(
0J
0L
0$
#8500000
b10001 !
1"!
0/
0P
#9000000
b10011 !
b1001 "
b1001 #
b10010 !
1p
1x
0"!
1!!
1/
1g
1c
1_
1W
1O
1<
1;
0C
1d
1a
1X
1j
1R
1&
1k
1'
1(
1+
1-
#9500000
b10011 !
1"!
0/
1P
0;
0S
#10000000
b10111 !
b1011 "
b1011 #
b10101 !
b1010 "
b1010 #
b10100 !
0p
1o
0x
1w
0"!
0!!
1~
1/
0c
0_
1^
0[
0W
1Q
0j
0R
0<
1B
1C
0A
1j
1R
0O
1T
0D
0V
1)
0*
0-
1V
0X
1-
1X
0+
1+
#10500000
b10101 !
1"!
0/
0P
0Q
0j
0R
0-
#11000000
b10111 !
b1011 "
b1011 #
b10110 !
1p
1x
0"!
1!!
1/
0g
0d
1c
0a
1_
0^
0X
1O
1N
1<
1;
0C
0i
0k
1R
0&
0'
0(
0)
0+
1-
#11500000
b10111 !
1"!
0/
1P
0;
1D
1S
0V
#12000000
b11111 !
b1111 "
b1111 #
b11011 !
b1101 "
b1101 #
b11001 !
b1100 "
b1100 #
b11000 !
0p
0o
1n
0x
0w
1v
0"!
0!!
0~
1}
1/
1d
0c
1a
0_
1[
0Z
1U
0N
1j
1f
0M
1K
1=
1;
09
18
17
1C
1A
0@
1i
0d
1k
0a
0[
0l
1g
1h
1L
1c
1I
0b
0D
1F
1G
0\
1_
0H
0`
1V
1'
1(
1*
1,
1l
0i
1d
1J
1E
0V
0G
1\
1`
1a
1b
0'
0(
0*
1&
1%
1$
1.
1i
0h
1Y
0`
1'
1(
0.
0%
#12500000
b11001 !
1"!
0/
0P
0O
0R
0-
#13000000
b11011 !
b1101 "
b1101 #
b11010 !
1p
1x
0"!
1!!
1/
1]
1W
1O
0<
0C
1^
1X
1R
0S
1)
1+
1-
#13500000
b11011 !
1"!
0/
1P
0O
0;
0R
1D
1S
0E
1V
0-
0Y
#14000000
b11111 !
b1111 "
b1111 #
b11101 !
b1110 "
b1110 #
b11100 !
0p
1o
0x
1w
0"!
0!!
1~
1/
0g
0a
0]
0W
1Q
0e
1<
1;
0B
1C
0A
1R
1g
1O
0D
0S
0T
0V
0&
0(
1V
0U
0X
1-
1&
1X
0,
0+
1+
#14500000
b11101 !
1"!
0/
0P
0O
0Q
0j
0R
0k
0-
#15000000
b11111 !
b1111 "
b1111 #
b11110 !
1p
1x
0"!
1!!
1/
0g
0d
0^
1]
0X
1O
1N
0<
0C
0i
1R
1D
1S
0&
0'
0)
0+
0V
1-
#15500000
b11111 !
1"!
0/
1P
0O
0;
0S
#16000000
b111111 !
b11111 "
b101111 !
b10111 "
b111 #
b100111 !
b10011 "
b11 #
b100011 !
b10001 "
b1 #
b100001 !
b10000 "
b0 #
b100000 !
0p
0o
0n
0m
0x
0w
0v
0u
1t
0"!
0!!
0~
0}
0|
1{
1/
1d
0c
1a
1^
0]
0N
0f
0K
0=
07
0P
06
1i
0d
1k
0^
0l
0R
1h
0L
0I
0_
1H
1`
1'
1(
1)
1l
0i
0J
0a
0b
0'
0)
0-
1%
0$
1.
0h
0k
0(
0.
0l
0%
1.
#16500000
b100001 !
1"!
0/
1P
#17000000
b100011 !
b10001 "
b1 #
b100010 !
1p
1x
0"!
1!!
1/
1_
1]
1T
1<
1C
1a
1^
1U
1O
1S
1k
1i
1j
1R
1(
1)
1,
1l
1-
0.
#17500000
b100011 !
1"!
0/
0P
1;
0D
0S
1V
#18000000
b100111 !
b10011 "
b11 #
b100101 !
b10010 "
b10 #
b100100 !
0p
1o
0x
1w
0"!
0!!
1~
1/
0_
0]
1X
0U
0T
0O
0R
0<
0;
1B
0C
1A
0j
1D
1S
1E
0V
1+
0,
0-
0E
1V
1U
1Y
0X
0Y
1X
1j
1[
1,
0+
0[
1+
1*
0*
#18500000
b100101 !
1"!
0/
1P
1Q
1R
1-
#19000000
b100111 !
b10011 "
b11 #
b100110 !
1p
1x
0"!
1!!
1/
0a
1_
0^
1]
0X
1W
0U
1T
0Q
1<
1C
0i
0j
0R
1O
0D
0S
0(
0)
0+
0,
0k
1E
0V
0-
0l
1Y
1.
#19500000
b100111 !
1"!
0/
0P
1;
1S
#20000000
b101111 !
b10111 "
b111 #
b101011 !
b10101 "
b101 #
b101001 !
b10100 "
b100 #
b101000 !
0p
0o
1n
0x
0w
1v
0"!
0!!
0~
1}
1/
1a
0_
1^
0]
1X
0W
1U
0T
0O
1j
1f
1R
1M
1K
1=
19
08
17
0C
0A
1@
1k
0a
1i
0^
0X
0U
0R
1b
1Z
0F
0\
1_
0H
0`
0S
0E
1V
1(
1)
1+
1,
1-
1l
0i
0j
1[
1\
1a
1I
0b
0Y
0(
0)
0+
0,
0-
1i
1J
1*
1(
0.
1L
1$
#20500000
b101001 !
1"!
0/
1P
1O
1j
1R
1-
#21000000
b101011 !
b10101 "
b101 #
b101010 !
1p
1x
0"!
1!!
1/
1g
1c
1T
0<
0;
1C
1d
1U
0O
1&
0R
1'
1,
0-
#21500000
b101011 !
1"!
0/
0P
1O
1;
1R
1S
1-
#22000000
b101111 !
b10111 "
b111 #
b101101 !
b10110 "
b110 #
b101100 !
0p
1o
0x
1w
0"!
0!!
1~
1/
0d
0c
0a
1^
0[
1X
0T
0O
1e
0R
1<
0B
0C
1A
0g
1D
1E
0V
0'
0(
1)
0*
1+
0-
0E
1V
1Y
0X
0&
0Y
1X
1[
0+
0[
1+
1*
0*
#22500000
b101101 !
1"!
0/
1P
1O
1Q
1R
1-
#23000000
b101111 !
b10111 "
b111 #
b101110 !
1p
1x
0"!
1!!
1/
1c
0^
0X
1W
0U
1T
0Q
0<
0;
1C
0i
0j
0R
0O
0)
0+
0,
0k
0-
0l
1.
#23500000
b101111 !
1"!
0/
0P
1O
1;
0D
0S
1E
0V
1Y
#24000000
b111111 !
b11111 "
b1111 #
b110111 !
b11011 "
b1011 #
b110011 !
b11001 "
b1001 #
b110001 !
b11000 "
b1000 #
b110000 !
0p
0o
0n
1m
0x
0w
0v
1u
0"!
0!!
0~
0}
1|
1/
1g
1d
1a
0_
1[
1X
0W
1U
0T
0O
1j
0f
1R
0K
0=
0;
18
07
1P
0>
16
1l
1i
1k
0a
0X
0U
0R
0g
0c
1D
1S
1G
0\
1H
1&
1'
1(
1*
1+
1,
1-
0j
0d
0E
1V
1`
0I
1b
0(
0+
0,
0-
0&
0.
0k
0Y
0J
0'
0L
0$
#24500000
b110001 !
1"!
0/
0P
#25000000
b110011 !
b11001 "
b1001 #
b110010 !
1p
1x
0"!
1!!
1/
1g
1c
1]
1W
1O
1<
1;
0C
1d
1^
1X
1j
1R
1&
1k
1'
1)
1+
1-
#25500000
b110011 !
1"!
0/
1P
0;
0S
#26000000
b110111 !
b11011 "
b1011 #
b110101 !
b11010 "
b1010 #
b110100 !
0p
1o
0x
1w
0"!
0!!
1~
1/
0c
1a
0^
0]
0[
0W
1Q
0j
0R
0<
1B
1C
0A
1j
1R
0O
1T
0D
0V
1(
0)
0*
0-
1V
0X
1-
1X
0+
1+
#26500000
b110101 !
1"!
0/
0P
0Q
0j
0R
0-
#27000000
b110111 !
b11011 "
b1011 #
b110110 !
1p
1x
0"!
1!!
1/
0g
0d
1c
0a
1]
0X
1O
1N
1<
1;
0C
0i
0k
1R
0&
0'
0(
0+
1-
#27500000
b110111 !
1"!
0/
1P
0;
1D
1S
0V
#28000000
b111111 !
b11111 "
b1111 #
b111011 !
b11101 "
b1101 #
b111001 !
b11100 "
b1100 #
b111000 !
0p
0o
1n
0x
0w
1v
0"!
0!!
0~
1}
1/
1d
0c
1^
0]
1[
0Z
1U
0N
1j
1f
0M
1K
1=
1;
09
08
17
1C
1A
0@
1i
0d
0^
0[
0l
1k
1g
1h
1L
1c
1I
0b
0D
1F
0G
1\
0H
0`
1V
1'
1)
1*
1,
1l
0i
1d
1J
1E
0V
0\
1H
1`
1b
0'
0)
0*
1&
1%
1$
1.
1i
0h
1Y
0b
1'
0.
0%
#28500000
b111001 !
1"!
0/
0P
0O
0R
0-
#29000000
b111011 !
b11101 "
b1101 #
b111010 !
1p
1x
0"!
1!!
1/
1_
1W
1O
0<
0C
1a
1X
1R
0S
1(
1+
1-
#29500000
b111011 !
1"!
0/
1P
0O
0;
0R
1D
1S
0E
1V
0-
0Y
#30000000
b111111 !
b11111 "
b1111 #
b111101 !
b11110 "
b1110 #
b111100 !
0p
1o
0x
1w
0"!
0!!
1~
1/
0g
0d
0_
0W
1Q
0e
1<
1;
0B
1C
0A
1R
1g
1O
0D
0S
0T
0V
0&
0'
1V
0U
0X
1-
1&
1X
0i
0,
0+
1i
1+
#30500000
b111101 !
1"!
0/
0P
0O
0Q
0j
0R
0-
#31000000
b111111 !
b11111 "
b1111 #
b111110 !
1p
1x
0"!
1!!
1/
0g
0a
1_
0X
1O
1N
0<
0C
0k
0i
1R
1D
1S
0&
0(
0+
0V
1-
#31500000
b111111 !
1"!
0/
1P
0O
0;
0S
