ULA-origins/simulation/qsim/ULA-origins.msim.vcd
$comment
	File created using the following command:
		vcd file ULA-origins.msim.vcd -direction
$end
$date
	Sun Dec 14 22:15:01 2014
$end
$version
	ModelSim Version 10.1d
$end
$timescale
	1ps
$end
$scope module machine_calc_vlg_vec_tst $end
$var reg 1 ! clk $end
$var reg 8 " data_in [7:0] $end
$var reg 1 # enter $end
$var reg 1 $ reset $end
$var wire 1 % out_a [7] $end
$var wire 1 & out_a [6] $end
$var wire 1 ' out_a [5] $end
$var wire 1 ( out_a [4] $end
$var wire 1 ) out_a [3] $end
$var wire 1 * out_a [2] $end
$var wire 1 + out_a [1] $end
$var wire 1 , out_a [0] $end
$var wire 1 - out_b [7] $end
$var wire 1 . out_b [6] $end
$var wire 1 / out_b [5] $end
$var wire 1 0 out_b [4] $end
$var wire 1 1 out_b [3] $end
$var wire 1 2 out_b [2] $end
$var wire 1 3 out_b [1] $end
$var wire 1 4 out_b [0] $end
$var wire 1 5 out_operand [7] $end
$var wire 1 6 out_operand [6] $end
$var wire 1 7 out_operand [5] $end
$var wire 1 8 out_operand [4] $end
$var wire 1 9 out_operand [3] $end
$var wire 1 : out_operand [2] $end
$var wire 1 ; out_operand [1] $end
$var wire 1 < out_operand [0] $end
$var wire 1 = result [7] $end
$var wire 1 > result [6] $end
$var wire 1 ? result [5] $end
$var wire 1 @ result [4] $end
$var wire 1 A result [3] $end
$var wire 1 B result [2] $end
$var wire 1 C result [1] $end
$var wire 1 D result [0] $end
$var wire 1 E sampler $end
$scope module i1 $end
$var wire 1 F gnd $end
$var wire 1 G vcc $end
$var wire 1 H unknown $end
$var tri1 1 I devclrn $end
$var tri1 1 J devpor $end
$var tri1 1 K devoe $end
$var wire 1 L ula_of_destiny|ula0|mux|M3|or_final~0_combout $end
$var wire 1 M ula_of_destiny|ula6|mux_ainvert|or_final~0_combout $end
$var wire 1 N ula_of_destiny|ula4|mux_ainvert|or_final~0_combout $end
$var wire 1 O ula_of_destiny|ula3|mux_ainvert|or_final~0_combout $end
$var wire 1 P enter~combout $end
$var wire 1 Q enter~clkctrl_outclk $end
$var wire 1 R state.S1~0_combout $end
$var wire 1 S reset~combout $end
$var wire 1 T reset~clkctrl_outclk $end
$var wire 1 U state.S1~regout $end
$var wire 1 V state.S2~feeder_combout $end
$var wire 1 W state.S2~regout $end
$var wire 1 X state.S3~feeder_combout $end
$var wire 1 Y state.S3~regout $end
$var wire 1 Z state.S0~0_combout $end
$var wire 1 [ state.S0~regout $end
$var wire 1 \ state.S0~clkctrl_outclk $end
$var wire 1 ] out_a[0]$latch~combout $end
$var wire 1 ^ out_a[1]$latch~combout $end
$var wire 1 _ out_a[2]$latch~combout $end
$var wire 1 ` out_a[3]$latch~combout $end
$var wire 1 a out_a[4]$latch~combout $end
$var wire 1 b out_a[5]$latch~combout $end
$var wire 1 c out_a[6]$latch~combout $end
$var wire 1 d out_a[7]$latch~combout $end
$var wire 1 e state.S1~clkctrl_outclk $end
$var wire 1 f out_b[0]$latch~combout $end
$var wire 1 g out_b[1]$latch~combout $end
$var wire 1 h out_b[2]$latch~combout $end
$var wire 1 i out_b[3]$latch~combout $end
$var wire 1 j out_b[4]$latch~combout $end
$var wire 1 k out_b[5]$latch~combout $end
$var wire 1 l out_b[6]$latch~combout $end
$var wire 1 m out_b[7]$latch~combout $end
$var wire 1 n state.S2~clkctrl_outclk $end
$var wire 1 o out_operand[0]$latch~combout $end
$var wire 1 p out_operand[1]$latch~combout $end
$var wire 1 q out_operand[2]$latch~combout $end
$var wire 1 r out_operand[3]$latch~combout $end
$var wire 1 s state.S3~clkctrl_outclk $end
$var wire 1 t ula_of_destiny|ula0|mux|M3|or_final~1_combout $end
$var wire 1 u ula_of_destiny|ula0|mux|M3|or_final~2_combout $end
$var wire 1 v ula_of_destiny|ula7|overflow_origins|xo2~0_combout $end
$var wire 1 w ula_of_destiny|ula6|mux_binvert|or_final~0_combout $end
$var wire 1 x ula_of_destiny|ula5|mux_ainvert|or_final~0_combout $end
$var wire 1 y ula_of_destiny|ula4|mux_binvert|or_final~0_combout $end
$var wire 1 z ula_of_destiny|ula3|mux_binvert|or_final~0_combout $end
$var wire 1 { ula_of_destiny|ula2|mux_ainvert|or_final~0_combout $end
$var wire 1 | ula_of_destiny|ula0|adder|cout_or~0_combout $end
$var wire 1 } ula_of_destiny|ula1|adder|big_or~1_cout $end
$var wire 1 ~ ula_of_destiny|ula1|adder|big_or~3 $end
$var wire 1 !! ula_of_destiny|ula1|adder|big_or~5 $end
$var wire 1 "! ula_of_destiny|ula1|adder|big_or~7 $end
$var wire 1 #! ula_of_destiny|ula1|adder|big_or~9 $end
$var wire 1 $! ula_of_destiny|ula1|adder|big_or~11 $end
$var wire 1 %! ula_of_destiny|ula1|adder|big_or~13 $end
$var wire 1 &! ula_of_destiny|ula1|adder|big_or~14_combout $end
$var wire 1 '! ula_of_destiny|ula0|mux|M3|or_final~3_combout $end
$var wire 1 (! ula_of_destiny|ula0|mux|M3|or_final~4_combout $end
$var wire 1 )! ula_of_destiny|ula0|mux|M3|or_final~5_combout $end
$var wire 1 *! result[0]$latch~combout $end
$var wire 1 +! ula_of_destiny|ula1|mux_binvert|or_final~0_combout $end
$var wire 1 ,! ula_of_destiny|ula1|mux|M1|or_final~0_combout $end
$var wire 1 -! ula_of_destiny|ula1|adder|big_or~2_combout $end
$var wire 1 .! ula_of_destiny|ula1|mux|M3|or_final~0_combout $end
$var wire 1 /! result[1]$latch~combout $end
$var wire 1 0! ula_of_destiny|ula1|adder|big_or~4_combout $end
$var wire 1 1! ula_of_destiny|ula2|mux_binvert|or_final~0_combout $end
$var wire 1 2! ula_of_destiny|ula2|mux|M1|or_final~0_combout $end
$var wire 1 3! ula_of_destiny|ula2|mux|M3|or_final~0_combout $end
$var wire 1 4! result[2]$latch~combout $end
$var wire 1 5! ula_of_destiny|ula1|adder|big_or~6_combout $end
$var wire 1 6! ula_of_destiny|ula3|mux|M1|or_final~0_combout $end
$var wire 1 7! ula_of_destiny|ula3|mux|M3|or_final~0_combout $end
$var wire 1 8! result[3]$latch~combout $end
$var wire 1 9! ula_of_destiny|ula1|adder|big_or~8_combout $end
$var wire 1 :! ula_of_destiny|ula4|mux|M1|or_final~0_combout $end
$var wire 1 ;! ula_of_destiny|ula4|mux|M3|or_final~0_combout $end
$var wire 1 <! result[4]$latch~combout $end
$var wire 1 =! ula_of_destiny|ula1|adder|big_or~10_combout $end
$var wire 1 >! ula_of_destiny|ula5|mux_binvert|or_final~0_combout $end
$var wire 1 ?! ula_of_destiny|ula5|mux|M1|or_final~0_combout $end
$var wire 1 @! ula_of_destiny|ula5|mux|M3|or_final~0_combout $end
$var wire 1 A! result[5]$latch~combout $end
$var wire 1 B! ula_of_destiny|ula1|adder|big_or~12_combout $end
$var wire 1 C! ula_of_destiny|ula6|mux|M1|or_final~0_combout $end
$var wire 1 D! ula_of_destiny|ula6|mux|M3|or_final~0_combout $end
$var wire 1 E! result[6]$latch~combout $end
$var wire 1 F! ula_of_destiny|ula7|mux|M3|or_final~1_combout $end
$var wire 1 G! ula_of_destiny|ula7|mux|M3|or_final~0_combout $end
$var wire 1 H! ula_of_destiny|ula7|mux|M3|or_final~2_combout $end
$var wire 1 I! result[7]$latch~combout $end
$var wire 1 J! data_in~combout [7] $end
$var wire 1 K! data_in~combout [6] $end
$var wire 1 L! data_in~combout [5] $end
$var wire 1 M! data_in~combout [4] $end
$var wire 1 N! data_in~combout [3] $end
$var wire 1 O! data_in~combout [2] $end
$var wire 1 P! data_in~combout [1] $end
$var wire 1 Q! data_in~combout [0] $end
$upscope $end
$upscope $end
$enddefinitions $end
#0
$dumpvars
0!
b1110000 "
0#
0$
0,
0+
0*
0)
1(
1'
1&
0%
x4
x3
x2
x1
x0
x/
x.
x-
x<
x;
x:
x9
08
07
06
05
xD
xC
xB
xA
x@
x?
x>
x=
xE
0F
1G
xH
1I
1J
1K
xL
xM
xN
xO
0P
0Q
1R
0S
0T
0U
0V
0W
0X
0Y
1Z
0[
0\
0]
0^
0_
0`
1a
1b
1c
0d
0e
xf
xg
xh
xi
xj
xk
xl
xm
0n
xo
xp
xq
xr
0s
xt
xu
xv
xw
xx
xy
xz
x{
x|
x}
x~
x!!
x"!
x#!
x$!
x%!
x&!
x'!
x(!
x)!
x*!
x+!
x,!
x-!
x.!
x/!
x0!
x1!
x2!
x3!
x4!
x5!
x6!
x7!
x8!
x9!
x:!
x;!
x<!
x=!
x>!
x?!
x@!
xA!
xB!
xC!
xD!
xE!
xF!
xG!
xH!
xI!
0Q!
0P!
0O!
0N!
1M!
1L!
1K!
0J!
$end
#500000
b11110000 "
b10110000 "
b10010000 "
b10000000 "
b10001000 "
b10001100 "
b10001101 "
1Q!
1O!
1N!
0M!
0L!
0K!
1J!
0E
1]
1_
1`
0a
0b
0c
1d
1,
1*
1)
0(
0'
0&
1%
#1000000
b11001101 "
b11101101 "
b11100101 "
0N!
1L!
1K!
1E
0`
1b
1c
0)
1'
1&
#1500000
b11100111 "
b11100110 "
b11101110 "
0Q!
1P!
1N!
0E
0]
1^
1`
0,
1+
1)
#2000000
b11101100 "
0P!
1E
0^
0+
#2500000
b1101100 "
b101100 "
b101101 "
b100101 "
b100111 "
1Q!
1P!
0N!
0K!
0J!
0E
1]
1^
0`
0c
0d
1,
1+
0)
0&
0%
#3000000
1#
b10100111 "
b10100110 "
b10101110 "
b10101100 "
1P
0Q!
0P!
1N!
1J!
1Q
1E
0]
0^
1`
1d
0,
0+
1)
1%
1[
1U
1e
1\
0R
1V
1m
0l
1k
0j
1i
1h
0g
0f
1-
0.
1/
00
11
12
03
04
#3500000
b10101000 "
b10100000 "
b10100010 "
1P!
0O!
0N!
0E
1g
0h
0i
13
02
01
#4000000
b10110010 "
b10010010 "
b10010011 "
b10011011 "
b10011001 "
1Q!
0P!
1N!
1M!
0L!
1E
1f
0g
1i
1j
0k
14
03
11
10
0/
#4500000
b11011001 "
b1011001 "
b1001001 "
0M!
1K!
0J!
0E
0j
1l
0m
00
1.
0-
#5000000
b1001000 "
b11001000 "
b11011000 "
0Q!
1M!
1J!
1E
0f
1j
1m
04
10
1-
#5500000
b11011100 "
b11010100 "
b11010101 "
b1010101 "
b1000101 "
1Q!
1O!
0N!
0M!
0J!
0E
1f
1h
0i
0j
0m
14
12
01
00
0-
#6000000
0#
b101 "
b1 "
b10000001 "
b10010001 "
0P
0O!
1M!
0K!
1J!
0Q
1E
0h
1j
0l
1m
02
10
0.
1-
#6500000
b10110001 "
b10110011 "
b10110010 "
b11110010 "
b1110010 "
0Q!
1P!
1L!
1K!
0J!
0E
0f
1g
1k
1l
0m
04
13
1/
1.
0-
#7000000
b1111010 "
b1011010 "
b1011011 "
b11011 "
1Q!
1N!
0L!
0K!
1E
1f
1i
0k
0l
14
11
0/
0.
#7500000
b11001 "
b10011001 "
b10010001 "
b10110001 "
0P!
0N!
1L!
1J!
0E
0g
0i
1k
1m
03
01
1/
1-
#8000000
b10110101 "
b10100101 "
b10100111 "
b10101111 "
1P!
1O!
1N!
0M!
1E
1g
1h
1i
0j
13
12
11
00
#8500000
b10001111 "
b10001011 "
b10011011 "
b10010011 "
0O!
0N!
1M!
0L!
0E
0h
0i
1j
0k
02
01
10
0/
#9000000
1#
b10010010 "
b10010 "
b10000 "
b110000 "
b100000 "
b101000 "
1P
0Q!
0P!
1N!
0M!
1L!
0J!
1Q
1E
0f
0g
1i
0j
1k
0m
04
03
11
00
1/
0-
1W
0U
0e
1n
1X
0V
1r
0q
0p
0o
0F!
0?!
06!
02!
1}
0|
0{
0x
0v
1u
0O
1N
1M
0L
0G!
1>!
01!
0+!
1z
0y
0w
0t
19
0:
0;
0<
0H!
0@!
07!
03!
1~
1-!
0!!
1(!
0,!
0:!
0C!
0)!
00!
0.!
1"!
15!
0;!
0D!
0#!
19!
1$!
1=!
0%!
1B!
0&!
1'!
#9500000
b111000 "
1M!
0E
#10000000
b1111000 "
b1111100 "
b1111101 "
1Q!
1O!
1K!
1E
1o
1q
1C!
1?!
1:!
16!
1,!
1)!
1L
1G!
0>!
11!
1+!
0'!
1|
0z
1y
1w
1v
1t
1<
1:
1D!
1@!
1;!
17!
1.!
1'!
0t
1H!
0?!
0=!
12!
10!
0~
06!
05!
1#!
09!
1%!
0B!
0@!
13!
1!!
00!
07!
1=!
1&!
15!
0'!
#10500000
b11111101 "
b11101101 "
b10101101 "
b10101100 "
0Q!
0M!
0K!
1J!
0E
0o
0H!
02!
0)!
0L
0<
03!
1t
1)!
#11000000
b10101110 "
b10100110 "
b100110 "
b110110 "
1P!
0N!
1M!
0J!
1E
1p
0r
1H!
1F!
0D!
1@!
0;!
17!
0(!
0C!
0:!
12!
0,!
0}
1{
1x
0v
1O
0N
0M
1L
1;
09
0H!
0-!
10!
0$!
0=!
0F!
1(!
0"!
05!
0#!
19!
0%!
1B!
0t
0.!
13!
1%!
0B!
0@!
1H!
0)!
1#!
09!
07!
1$!
1=!
1;!
0&!
1D!
1&!
0D!
0$!
0=!
0;!
0%!
1B!
1@!
0G!
1'!
1G!
0'!
1%!
0B!
0@!
0&!
1D!
0H!
0(!
1H!
1(!
1&!
0D!
0G!
1'!
1G!
0'!
0H!
0(!
1H!
1(!
#11500000
b110010 "
b110011 "
b111011 "
b10111011 "
1Q!
0O!
1N!
1J!
0E
1o
0q
1r
0H!
1C!
1:!
03!
1,!
1)!
1>!
01!
0+!
1'!
0|
1z
0y
0w
1}
0{
0x
0O
1N
1M
1<
0:
19
1?!
02!
0!!
1~
1-!
0(!
16!
1"!
15!
00!
0)!
0#!
19!
1$!
1=!
0%!
1B!
0&!
0G!
#12000000
0#
b10011011 "
b10011001 "
b10001001 "
b10000001 "
0P
0P!
0N!
0M!
0L!
0Q
1E
0p
0r
1F!
1D!
1@!
1;!
17!
1.!
1(!
0C!
0:!
12!
0,!
0}
1{
1x
1v
0u
1O
0N
0M
0L
0;
09
1H!
1)!
0D!
0;!
13!
0.!
0-!
10!
0$!
0=!
0(!
0"!
05!
09!
0B!
1B!
0)!
19!
#12500000
b10000000 "
b10100000 "
b10110000 "
0Q!
1M!
1L!
0E
0o
0H!
02!
1L
0<
03!
#13000000
b11110000 "
b1110000 "
b1110001 "
b1010001 "
b1000001 "
1Q!
0M!
0L!
1K!
0J!
1E
1o
1H!
12!
0L
1<
13!
#13500000
b1000101 "
b1000111 "
b1001111 "
b11001111 "
b11001110 "
0Q!
1P!
1O!
1N!
1J!
0E
0o
1p
1q
1r
1D!
0@!
0?!
1;!
07!
06!
02!
1(!
1t
0>!
11!
1+!
0'!
1|
0z
1y
1w
1u
1}
0{
0x
0O
1N
1M
0<
1;
1:
19
1)!
1$!
1,!
0~
1-!
0(!
1"!
1:!
1#!
1C!
1%!
0B!
1.!
1!!
00!
09!
1=!
1&!
0D!
15!
03!
0;!
1@!
1G!
17!
0H!
#14000000
b10001110 "
b10011110 "
b10011010 "
b10010010 "
b10010011 "
1Q!
0O!
0N!
1M!
0K!
1E
1o
0q
0r
0@!
1?!
07!
16!
12!
0.!
0)!
1>!
01!
0+!
0|
1z
0y
0w
0u
0}
1{
1x
1O
0N
0M
1<
0:
09
0$!
0,!
1~
0-!
0"!
0:!
0#!
0C!
0%!
1B!
0!!
10!
19!
0=!
0&!
05!
0G!
1'!
1(!
1)!
#14500000
b11010011 "
b11010111 "
b11010110 "
0Q!
1O!
1K!
0E
0o
1q
1H!
1D!
1;!
13!
02!
1L
0>!
11!
1+!
0'!
1|
0z
1y
1w
0v
1u
0<
1:
1'!
0t
0?!
1$!
1=!
12!
1!!
00!
0~
06!
1"!
15!
1#!
09!
1%!
0B!
0F!
0(!
0)!
1@!
0%!
1B!
03!
0"!
05!
10!
17!
0#!
19!
0$!
0=!
0;!
1&!
0D!
0H!
0&!
1D!
1#!
09!
07!
13!
1$!
1=!
1;!
1%!
0B!
0@!
1G!
0'!
0G!
1'!
0$!
0=!
0;!
0%!
1B!
1@!
1&!
0D!
1H!
1(!
0H!
0(!
1%!
0B!
0@!
0&!
1D!
1G!
0'!
1&!
0D!
0G!
1'!
1H!
1(!
1G!
0'!
0H!
0(!
1H!
1(!
#15000000
1#
b11000110 "
1P
0M!
1Q
1E
1Y
0W
0n
1s
0Z
0X
1I!
0E!
0A!
0<!
08!
14!
0/!
0*!
1=
0>
0?
0@
0A
1B
0C
0D
#15500000
b11100110 "
b1100110 "
b1101110 "
b1101010 "
b1101011 "
1Q!
0O!
1N!
1L!
0J!
0E
#16000000
b1101001 "
b101001 "
b10101001 "
b10100001 "
b10100000 "
0Q!
0P!
0N!
0K!
1J!
1E
#16500000
b10000000 "
b10000010 "
b10 "
b11 "
1Q!
1P!
0L!
0J!
0E
#17000000
b111 "
b1000111 "
b1001111 "
b1001110 "
0Q!
1O!
1N!
1K!
1E
#17500000
b1101110 "
b1101100 "
b101100 "
b100100 "
b100101 "
1Q!
0P!
0N!
1L!
0K!
0E
#18000000
0#
b110101 "
b10110101 "
b10110001 "
b10010001 "
b10010011 "
0P
1P!
0O!
1M!
0L!
1J!
0Q
1E
#18500000
b10011011 "
b11011 "
b111011 "
b111001 "
0P!
1N!
1L!
0J!
0E
#19000000
b1111001 "
b1101001 "
b1101101 "
b1100101 "
1O!
0N!
0M!
1K!
1E
#19500000
b100101 "
b110101 "
b110001 "
b111001 "
0O!
1N!
1M!
0K!
0E
#20000000
b10111001 "
b10011001 "
0L!
1J!
1E
#20500000
b10011000 "
b10011010 "
b11011010 "
b11010010 "
b1010010 "
b1110010 "
0Q!
1P!
0N!
1L!
1K!
0J!
0E
#21000000
1#
b1100010 "
b1100110 "
b1100111 "
b1100101 "
b100101 "
b101 "
1P
1Q!
0P!
1O!
0M!
0L!
0K!
1Q
1E
0[
0Y
0s
0\
1R
1Z
0d
0b
0`
1]
1v
0L
0x
0O
0%
0'
0)
1,
1F!
0(!
1t
1$!
1=!
1"!
15!
0H!
1)!
0%!
1B!
1@!
0#!
19!
17!
0&!
1D!
0=!
1;!
0G!
0@!
1H!
#21500000
b10101 "
b10111 "
b1010111 "
1P!
1M!
1K!
0E
1^
1a
1c
1,!
1}
1:!
1N
1C!
1M
1+
1(
1&
1-!
1#!
09!
1%!
0B!
1.!
1=!
0;!
1&!
0D!
1@!
1G!
0H!
#22000000
b11010111 "
b11010110 "
b11000110 "
b10000110 "
0Q!
0M!
0K!
1J!
1E
0]
0a
0c
1d
1L
0:!
0N
0C!
0M
0v
0,
0(
0&
1%
0t
0#!
19!
0%!
1B!
0F!
1(!
0)!
0=!
1;!
0&!
1D!
1H!
0@!
0G!
1'!
0H!
0(!
#22500000
b10000010 "
b10100010 "
b100010 "
b100011 "
b1100011 "
1Q!
0O!
1L!
1K!
0J!
0E
1]
0_
1b
1c
0d
0L
02!
0{
1x
1C!
1M
1v
1,
0*
1'
1&
0%
0'!
1t
00!
1=!
1%!
0B!
1F!
1(!
0(!
1)!
03!
1@!
1&!
0D!
1H!
1G!
0H!
#23000000
b1100001 "
b11100001 "
b10100001 "
0P!
0K!
1J!
1E
0^
0c
1d
0,!
0}
0C!
0M
0v
0+
0&
1%
0-!
0%!
1B!
0F!
1(!
0.!
0&!
1D!
1H!
0G!
0H!
#23500000
b10110001 "
b10010001 "
b11010001 "
1M!
0L!
1K!
0E
1a
0b
1c
1:!
1N
0x
1C!
1M
1(
0'
1&
1#!
09!
0=!
1%!
0B!
1=!
0;!
0@!
1&!
0D!
1@!
1G!
1H!
#24000000
0#
b11010000 "
b11110000 "
b10110000 "
0P
0Q!
1L!
0K!
0Q
1E
0]
1b
0c
1L
1x
0C!
0M
0,
1'
0&
0t
0$!
0=!
0%!
1B!
0)!
1%!
0B!
0@!
0&!
1D!
1&!
0D!
0G!
1'!
1G!
0'!
0H!
0(!
1H!
1(!
#24500000
b10110100 "
b110100 "
b100100 "
b1100100 "
1O!
0M!
1K!
0J!
0E
1_
0a
1c
0d
12!
1{
0:!
0N
1C!
1M
1v
1*
0(
1&
0%
10!
0#!
19!
1B!
1F!
0(!
13!
1$!
1=!
1;!
1D!
0H!
0B!
1@!
0D!
#25000000
b1101100 "
b1101110 "
b1101010 "
b1111010 "
1P!
0O!
1N!
1M!
1E
1^
0_
1`
1a
1,!
1}
02!
0{
1O
1:!
1N
1+
0*
1)
1(
1-!
00!
0"!
05!
1#!
09!
1.!
03!
19!
07!
0$!
0=!
0;!
1;!
1B!
0@!
1D!
#25500000
b1111011 "
b11111011 "
b11110011 "
b11100011 "
1Q!
0N!
0M!
1J!
0E
1]
0`
0a
1d
0L
0O
0:!
0N
0v
1,
0)
0(
1%
1t
1"!
15!
09!
0F!
1(!
1)!
0#!
19!
17!
0;!
1H!
1$!
1=!
1;!
0B!
1@!
0D!
#26000000
b11100010 "
b1100010 "
b1101010 "
b1111010 "
0Q!
1N!
1M!
0J!
1E
0]
1`
1a
0d
1L
1O
1:!
1N
1v
0,
1)
1(
0%
0t
0"!
05!
1#!
09!
1F!
0(!
0)!
19!
07!
0$!
0=!
0;!
0H!
1;!
1B!
0@!
1D!
#26500000
b1011010 "
b11010 "
b11000 "
b11100 "
0P!
1O!
0L!
0K!
0E
0^
1_
0b
0c
0,!
0}
12!
1{
0x
0C!
0M
0+
1*
0'
0&
0-!
10!
1$!
1=!
0B!
0.!
13!
0%!
1B!
1@!
0D!
0&!
1D!
0G!
1'!
1H!
1(!
#27000000
1#
b11101 "
b10011101 "
b10111101 "
1P
1Q!
1L!
1J!
1Q
1E
1]
1b
1d
0L
1x
0v
1,
1'
1%
0'!
1t
0$!
0=!
0F!
0(!
1(!
1)!
1%!
0B!
0@!
0H!
1&!
0D!
1G!
1H!
1[
1U
1e
1\
0R
1V
1m
1j
1h
1f
1v
0y
01!
0t
1-
10
12
14
1F!
0(!
0:!
09!
02!
00!
0)!
0H!
0;!
03!
#27500000
b10101101 "
b10101111 "
b10001111 "
1P!
0M!
0L!
0E
1g
0j
0k
0+!
1y
1>!
13
00
0/
1~
1-!
1:!
19!
1?!
1=!
0!!
10!
1.!
1;!
1@!
1"!
15!
13!
09!
17!
0;!
#28000000
b10000111 "
b10000011 "
b10000010 "
0Q!
0O!
0N!
1E
0f
0h
0i
1t
11!
1z
04
02
01
1)!
12!
1!!
00!
16!
0"!
05!
03!
15!
07!
19!
17!
1;!
#28500000
b10010010 "
1M!
0E
1j
0y
10
0:!
09!
0;!
#29000000
b11010010 "
b11010000 "
b11011000 "
b11011100 "
b11001100 "
0P!
1O!
1N!
0M!
1K!
1E
0g
1h
1i
0j
1l
1+!
01!
0z
1y
0w
03
12
11
00
1.
0~
0-!
02!
0!!
10!
06!
05!
1:!
19!
0%!
1B!
1!!
00!
0.!
13!
1"!
15!
07!
1;!
0&!
1D!
0"!
05!
03!
09!
17!
0G!
1'!
19!
07!
0;!
1H!
1(!
1;!
#29500000
b1001100 "
b1101100 "
b1101101 "
b101101 "
b100101 "
1Q!
0N!
1L!
0K!
0J!
0E
1f
0i
1k
0l
0m
0t
1z
0>!
1w
0'!
0v
14
01
1/
0.
0-
0)!
16!
15!
0?!
0=!
1%!
0B!
0F!
17!
0@!
1&!
0D!
0H!
1G!
1H!
#30000000
0#
b100111 "
b1100111 "
0P
1P!
1K!
0Q
1E
1g
1l
0+!
0w
13
1.
1~
1-!
0%!
1B!
0!!
10!
1.!
0&!
1D!
05!
13!
0G!
07!
0H!
#30500000
b1100011 "
b1000011 "
b1000010 "
b1001010 "
0Q!
0O!
1N!
0L!
0E
0f
0h
1i
0k
1t
11!
0z
1>!
04
02
11
0/
1)!
12!
1!!
00!
06!
1"!
15!
1?!
1=!
03!
0"!
05!
17!
09!
1@!
19!
07!
0;!
1;!
#31000000
b1001110 "
b1101110 "
b1101111 "
b1100111 "
1Q!
1O!
0N!
1L!
1E
1f
1h
0i
1k
0t
01!
1z
0>!
14
12
01
1/
0)!
02!
0!!
10!
16!
15!
0?!
0=!
13!
05!
17!
0@!
07!
#31500000
b1000111 "
b1000110 "
b1001110 "
0Q!
1N!
0L!
0E
0f
1i
0k
1t
0z
1>!
04
11
0/
1)!
06!
1"!
15!
1?!
1=!
17!
09!
1@!
0;!
