ULA-origins/simulation/qsim/ULA-origins.msim.vcd
$comment
	File created using the following command:
		vcd file ULA-origins.msim.vcd -direction
$end
$date
	Tue Dec 16 01:47:46 2014
$end
$version
	ModelSim Version 10.1d
$end
$timescale
	1ps
$end
$scope module final_test_machine_vlg_vec_tst $end
$var reg 8 ! data_in [7:0] $end
$var reg 1 " enter $end
$var reg 1 # reset $end
$var wire 1 $ result [7] $end
$var wire 1 % result [6] $end
$var wire 1 & result [5] $end
$var wire 1 ' result [4] $end
$var wire 1 ( result [3] $end
$var wire 1 ) result [2] $end
$var wire 1 * result [1] $end
$var wire 1 + result [0] $end
$var wire 1 , sampler $end
$scope module i1 $end
$var wire 1 - gnd $end
$var wire 1 . vcc $end
$var wire 1 / unknown $end
$var tri1 1 0 devclrn $end
$var tri1 1 1 devpor $end
$var tri1 1 2 devoe $end
$var wire 1 3 ula_of_destiny|ula0|adder|cout_or~0_combout $end
$var wire 1 4 ula_of_destiny|ula2|mux_binvert|or_final~0_combout $end
$var wire 1 5 ula_of_destiny|ula3|mux_binvert|or_final~0_combout $end
$var wire 1 6 ula_of_destiny|ula5|mux_binvert|or_final~0_combout $end
$var wire 1 7 enter~combout $end
$var wire 1 8 enter~clkctrl_outclk $end
$var wire 1 9 state.S1~0_combout $end
$var wire 1 : reset~combout $end
$var wire 1 ; reset~clkctrl_outclk $end
$var wire 1 < state.S1~regout $end
$var wire 1 = state.S2~regout $end
$var wire 1 > state.S3~feeder_combout $end
$var wire 1 ? state.S3~regout $end
$var wire 1 @ state.S0~0_combout $end
$var wire 1 A state.S0~regout $end
$var wire 1 B state.S0~clkctrl_outclk $end
$var wire 1 C state.S1~clkctrl_outclk $end
$var wire 1 D ula_of_destiny|ula0|adder|big_or~0_combout $end
$var wire 1 E state.S3~clkctrl_outclk $end
$var wire 1 F result[0]$latch~combout $end
$var wire 1 G ula_of_destiny|ula1|mux_binvert|or_final~0_combout $end
$var wire 1 H ula_of_destiny|ula1|adder|big_or~1_cout $end
$var wire 1 I ula_of_destiny|ula1|adder|big_or~2_combout $end
$var wire 1 J result[1]$latch~combout $end
$var wire 1 K ula_of_destiny|ula1|adder|big_or~3 $end
$var wire 1 L ula_of_destiny|ula1|adder|big_or~4_combout $end
$var wire 1 M result[2]$latch~combout $end
$var wire 1 N ula_of_destiny|ula1|adder|big_or~5 $end
$var wire 1 O ula_of_destiny|ula1|adder|big_or~6_combout $end
$var wire 1 P result[3]$latch~combout $end
$var wire 1 Q ula_of_destiny|ula4|mux_binvert|or_final~0_combout $end
$var wire 1 R ula_of_destiny|ula1|adder|big_or~7 $end
$var wire 1 S ula_of_destiny|ula1|adder|big_or~8_combout $end
$var wire 1 T result[4]$latch~combout $end
$var wire 1 U ula_of_destiny|ula1|adder|big_or~9 $end
$var wire 1 V ula_of_destiny|ula1|adder|big_or~10_combout $end
$var wire 1 W result[5]$latch~combout $end
$var wire 1 X ula_of_destiny|ula6|mux_binvert|or_final~0_combout $end
$var wire 1 Y ula_of_destiny|ula1|adder|big_or~11 $end
$var wire 1 Z ula_of_destiny|ula1|adder|big_or~12_combout $end
$var wire 1 [ result[6]$latch~combout $end
$var wire 1 \ ula_of_destiny|ula7|mux_binvert|or_final~0_combout $end
$var wire 1 ] ula_of_destiny|ula1|adder|big_or~13 $end
$var wire 1 ^ ula_of_destiny|ula1|adder|big_or~14_combout $end
$var wire 1 _ result[7]$latch~combout $end
$var wire 1 ` data_in~combout [7] $end
$var wire 1 a data_in~combout [6] $end
$var wire 1 b data_in~combout [5] $end
$var wire 1 c data_in~combout [4] $end
$var wire 1 d data_in~combout [3] $end
$var wire 1 e data_in~combout [2] $end
$var wire 1 f data_in~combout [1] $end
$var wire 1 g data_in~combout [0] $end
$var wire 1 h reg_b [7] $end
$var wire 1 i reg_b [6] $end
$var wire 1 j reg_b [5] $end
$var wire 1 k reg_b [4] $end
$var wire 1 l reg_b [3] $end
$var wire 1 m reg_b [2] $end
$var wire 1 n reg_b [1] $end
$var wire 1 o reg_b [0] $end
$var wire 1 p reg_op [3] $end
$var wire 1 q reg_op [2] $end
$var wire 1 r reg_op [1] $end
$var wire 1 s reg_op [0] $end
$var wire 1 t reg_a [7] $end
$var wire 1 u reg_a [6] $end
$var wire 1 v reg_a [5] $end
$var wire 1 w reg_a [4] $end
$var wire 1 x reg_a [3] $end
$var wire 1 y reg_a [2] $end
$var wire 1 z reg_a [1] $end
$var wire 1 { reg_a [0] $end
$upscope $end
$upscope $end
$enddefinitions $end
#0
$dumpvars
b11110011 !
0"
0#
1.
x/
10
11
12
x3
x4
x5
x6
07
08
19
0:
0;
0<
0=
0>
0?
1@
0A
0B
0C
xD
0E
xF
xG
1H
xI
xJ
xK
xL
xM
xN
xO
xP
xQ
xR
xS
xT
xU
xV
xW
xX
xY
xZ
x[
x\
x]
x^
x_
1g
1f
0e
0d
1c
1b
1a
1`
xo
xn
x+
x*
x)
x(
x'
x&
x%
x$
x,
0-
xm
xl
xk
xj
xi
xh
zs
zr
xq
zp
1{
1z
0y
0x
1w
1v
1u
1t
$end
#500000
b11111011 !
b11111111 !
1e
1d
0,
1y
1x
#1000000
b1111111 !
b1011111 !
b1011101 !
b1010101 !
0f
0d
0b
0`
1,
0z
0x
0v
0t
0H
#1500000
b10101 !
b101 !
b100 !
b0 !
0g
0e
0c
0a
0,
0{
0y
0w
0u
#2000000
1"
b10000000 !
b10100000 !
b10101000 !
17
1d
1b
1`
18
1,
1x
1v
1t
1A
1<
1C
1B
09
1h
0i
0k
0n
0o
1j
1l
0m
0D
#2500000
b10101010 !
b11101010 !
b1101010 !
b1001010 !
b1000010 !
1f
0d
0b
1a
0`
0,
1n
0l
0j
1i
0h
#3000000
b1010010 !
b1010011 !
b1010001 !
b10001 !
b10010001 !
b10011001 !
1g
0f
1d
1c
0a
1`
1,
1o
0n
1l
1k
0i
1h
1D
03
1K
0N
#3500000
b10011101 !
b10111101 !
b10101101 !
b10101100 !
b10101110 !
b11101110 !
b1101110 !
b1100110 !
0g
1f
1e
0d
0c
1b
1a
0`
0,
0o
1n
1m
0l
0k
1j
1i
0h
0D
x3
xK
xN
#4000000
0"
b1100010 !
b1000010 !
b1010010 !
b1011010 !
07
0e
1d
1c
0b
08
1,
0m
1l
1k
0j
#4500000
b1011000 !
b11000 !
b10011000 !
b10011100 !
b10111100 !
0f
1e
1b
0a
1`
0,
0n
1m
1j
0i
1h
#5000000
b10111101 !
b10101101 !
b11101101 !
b1101101 !
b1101001 !
1g
0e
0c
1a
0`
1,
1o
0m
0k
1i
0h
1D
03
1K
0N
#5500000
b1100001 !
0d
0,
0l
#6000000
1"
b1000001 !
b1010001 !
b1010101 !
17
1e
1c
0b
18
1,
1m
1k
0j
1=
0<
0C
1q
1>
1\
0X
0Q
1G
16
15
04
0]
0U
1I
0Y
0R
0O
0L
0^
0V
1Z
1S
#6500000
b1010111 !
b11010111 !
b11011111 !
b11111111 !
1f
1d
1b
1`
0,
#7000000
b11111101 !
b11110101 !
0f
0d
1,
#7500000
b11110100 !
b10110100 !
b10010100 !
b10010110 !
0g
1f
0b
0a
0,
0q
0\
1X
1Q
0G
06
05
14
1^
1]
0Z
1U
0S
0I
1Y
1V
1R
1O
1L
0^
0Y
0V
0]
1Z
0U
1S
1]
0Z
1^
1Y
1V
0^
0]
1Z
1^
#8000000
0"
b10000110 !
b110 !
b1110 !
b1111 !
07
1g
1d
0c
0`
08
1,
1q
1\
0X
0Q
1G
16
15
04
0^
0Z
0S
1I
0Y
0V
0R
0O
0L
1Z
1S
#8500000
b1011 !
b1001 !
b11001 !
b10011001 !
0f
0e
1c
1`
0,
#9000000
b11011001 !
b11111001 !
b11111000 !
b11111010 !
b11101010 !
0g
1f
0c
1b
1a
1,
0q
0\
1X
1Q
0G
06
05
14
1^
1]
0Z
1U
0S
0I
1Y
1V
1R
1O
1L
0^
0Y
0V
0]
1Z
0U
1S
1]
0Z
1^
1Y
1V
0^
0]
1Z
1^
#9500000
b11101110 !
b11001110 !
b11001111 !
b11001101 !
1g
0f
1e
0b
0,
1q
1\
0X
0Q
1G
16
15
04
0^
0Z
0S
1I
0Y
0V
0R
0O
0L
1Z
1S
#10000000
1"
b11000101 !
b1000101 !
b1010101 !
b1010001 !
b1010000 !
17
0g
0e
0d
1c
0`
18
1,
0q
0\
1X
1Q
0G
06
05
14
1^
1]
0Z
1U
0S
0I
1Y
1V
1R
1O
1L
0^
0Y
0V
0]
1Z
0U
1S
1]
0Z
1^
1Y
1V
0^
0]
1Z
1^
1?
0=
1E
0@
0>
1_
1[
1W
1T
1P
1M
0J
1F
1$
1%
1&
1'
1(
1)
0*
1+
#10500000
b1110000 !
b1110010 !
b1111010 !
1f
1d
1b
0,
#11000000
b111010 !
b101010 !
b101110 !
b1110 !
b1100 !
0f
1e
0c
0b
0a
1,
#11500000
b10001100 !
b10001101 !
b11001101 !
b11011101 !
b11111101 !
b11111111 !
1g
1f
1c
1b
1a
1`
0,
#12000000
0"
b11110111 !
b1110111 !
b110111 !
b10111 !
07
0d
0b
0a
0`
08
1,
#12500000
b10011 !
b110011 !
0e
1b
0,
#13000000
b110010 !
b110000 !
b110100 !
0g
0f
1e
1,
#13500000
b111100 !
b10111100 !
b11111100 !
b11111110 !
1f
1d
1a
1`
0,
#14000000
1"
b11111111 !
b10111111 !
b10111101 !
17
1g
0f
0a
18
1,
0A
0?
0E
0B
19
1@
1y
1{
1w
1N
0L
0D
13
1U
0S
0R
0O
1I
0Y
0V
1S
1]
0Z
0^
#14500000
b10101101 !
b10100101 !
b100101 !
b100100 !
b1100100 !
b1100110 !
0g
1f
0d
0c
1a
0`
0,
0{
1z
0x
0w
1u
0t
1D
03
1H
1R
1O
0S
1Z
1^
0U
1S
1Y
1V
0Z
#15000000
b1100010 !
b11100010 !
b11100011 !
b11100001 !
1g
0f
0e
1`
1,
1{
0z
0y
1t
0D
13
0H
0N
1L
0^
0O
#15500000
b11000001 !
b11001001 !
b11001101 !
b11001111 !
1f
1e
1d
0b
0,
1z
1y
1x
0v
1H
1N
0L
1O
0V
0K
0I
0R
0O
1L
1U
0S
1V
#16000000
0"
b11011111 !
b11111111 !
b11110111 !
b11110101 !
07
0f
0d
1c
1b
08
1,
0z
0x
1w
1v
0H
1R
1O
1S
0Y
0V
1K
1I
0S
1Z
0L
#16500000
b10110101 !
b110101 !
b110100 !
b10100 !
b11100 !
b11110 !
0g
1f
1d
0b
0a
0`
0,
0{
1z
1x
0v
0u
0t
1D
03
1H
0R
0O
1Y
1V
0Z
1^
1S
0]
1Z
0^
#17000000
b1110 !
b1111 !
1g
0c
1,
1{
0w
0D
13
0S
0K
0I
1L
#17500000
b1011 !
b1001011 !
b11001011 !
b11101011 !
b11100011 !
b11100001 !
0f
0e
0d
1b
1a
1`
0,
0z
0y
0x
1v
1u
1t
0H
0L
1R
1O
0Y
0V
1]
0Z
1^
1K
1I
0U
1S
1Z
0^
0N
1L
1Y
1V
0O
0Z
#18000000
1"
b11100101 !
b10100101 !
b100101 !
b101 !
b1101 !
b1111 !
17
1f
1e
1d
0b
0a
0`
18
1,
1z
1y
1x
0v
0u
0t
1H
1N
0L
1O
0V
0]
1Z
1^
0K
0I
0R
0O
0^
1L
1U
0S
1V
1A
1<
1C
1B
09
0i
0k
1n
1l
0X
0Q
1G
15
0Z
0U
1S
1I
1O
0V
#18500000
b1110 !
b1001110 !
b1101110 !
b1100110 !
0g
0d
1b
1a
0,
0o
0l
1j
1i
1D
03
05
16
1X
0I
0O
1V
1Z
#19000000
b1100010 !
b11100010 !
b11100000 !
b11100001 !
b10100001 !
1g
0f
0e
0a
1`
1,
1o
0n
0m
0i
1h
0D
13
0G
04
0X
1\
0L
0Z
1^
#19500000
b10110001 !
b110001 !
b110000 !
0g
1c
0`
0,
0o
1k
0h
1D
03
1Q
0\
1K
1I
1U
0S
0^
0N
1L
0Y
0V
1R
1O
1Z
0U
1S
1Y
1V
0Z
#20000000
0"
b111000 !
b111010 !
b101010 !
b10101010 !
07
1f
1d
0c
1`
08
1,
1n
1l
0k
1h
1G
15
0Q
1\
0K
0I
0R
0O
0S
1^
1N
0L
1S
1O
#20500000
b10001010 !
b10001110 !
b11001110 !
b11000110 !
b11000100 !
b11010100 !
b1010100 !
0f
1e
0d
1c
0b
1a
0`
0,
0n
1m
0l
1k
0j
1i
0h
0G
14
05
1Q
06
1X
0\
1K
1I
1L
0O
1U
0S
0V
1Z
0^
0L
1V
#21000000
b1110100 !
b1110000 !
b1111000 !
b1111010 !
1f
0e
1d
1b
1,
1n
0m
1l
1j
1G
04
15
16
0K
0I
0N
1L
1O
0Y
0V
1N
0L
0O
1]
0Z
1O
1^
#21500000
b1101010 !
b1001010 !
b1001110 !
b1001100 !
0f
1e
0c
0b
0,
0n
1m
0k
0j
0G
14
0Q
06
1K
1I
1L
0U
1S
1Y
1V
0L
0V
0]
1Z
0^
#22000000
b1001101 !
1"
b11001101 !
b11001001 !
b11001011 !
1g
1f
0e
1`
17
18
1,
1o
1n
0m
1h
0D
13
1G
04
1\
0K
0N
1L
1^
1N
0L
0O
1O
1=
0<
0C
1q
1>
0\
0X
1Q
0G
16
05
14
0^
0Z
1U
0S
0I
1V
0O
1L
0Y
0V
1Z
#22500000
b11000011 !
b11100011 !
b11100001 !
0f
0d
1b
0,
#23000000
b10100001 !
b10110001 !
b10110000 !
b110000 !
b110100 !
0g
1e
1c
0a
0`
1,
0q
1\
1X
0Q
1G
06
15
04
1^
1]
0Z
0U
1S
1I
1Y
1V
1O
0L
0^
0V
0]
1Z
1^
#23500000
b10100 !
b1010100 !
b1010101 !
1g
0b
1a
0,
1q
0\
0X
1Q
0G
16
05
14
0^
0Z
1U
0S
0I
1V
0O
1L
0Y
0V
1Z
#24000000
0"
b1011101 !
b1011111 !
b1111111 !
07
1f
1d
1b
08
1,
#24500000
b1101111 !
b101111 !
0c
0a
0,
#25000000
b101011 !
b101001 !
b1101001 !
0f
0e
1a
1,
#25500000
b11101001 !
b11101000 !
b10101000 !
0g
0a
1`
0,
0q
1\
1X
0Q
1G
06
15
04
1^
1]
0Z
0U
1S
1I
1Y
1V
1O
0L
0^
0V
0]
1Z
1^
#26000000
1"
b10100000 !
b10110000 !
b10110010 !
17
1f
0d
1c
18
1,
1?
0=
1E
0@
0>
0W
0M
1J
0F
0&
0)
1*
0+
#26500000
b10010010 !
b10010110 !
b10110 !
b10111 !
b10101 !
1g
0f
1e
0b
0`
0,
#27000000
b1010101 !
b1010001 !
b1010000 !
0g
0e
1a
1,
#27500000
b1000000 !
b11000000 !
b11000010 !
b10000010 !
b10000110 !
1f
1e
0c
0a
1`
0,
#28000000
0"
b10001110 !
b10101110 !
b10101111 !
b10111111 !
b10111101 !
b11111101 !
07
1g
0f
1d
1c
1b
1a
08
1,
#28500000
b1111101 !
b1111001 !
b1011001 !
b1011000 !
b1011010 !
b11010 !
0g
1f
0e
0b
0a
0`
0,
#29000000
b1010 !
b10001010 !
b10101010 !
b10101011 !
1g
0c
1b
1`
1,
#29500000
b10101001 !
b11101001 !
0f
1a
0,
#30000000
1"
b11001001 !
b11001011 !
17
1f
0b
18
1,
0A
0?
0E
0B
19
1@
1t
0y
1u
0^
0N
1L
1]
0Z
0O
1^
#30500000
b11001111 !
b11011111 !
b10011111 !
b10111111 !
b10111101 !
0f
1e
1c
1b
0a
0,
0z
1y
1w
1v
0u
0H
1N
0L
1U
0S
1V
0]
1Z
0I
1O
0Y
0V
0^
1]
0Z
1^
#31000000
b10110101 !
b10110100 !
b10100100 !
b10000100 !
b10000110 !
0g
1f
0d
0c
0b
1,
0{
1z
0x
0w
0v
1D
03
1H
0O
0U
1S
1Y
1V
0V
0]
1Z
0^
#31500000
b110 !
b10 !
b1000010 !
b1001010 !
b1001011 !
b1011011 !
b1011001 !
1g
0f
0e
1d
1c
1a
0`
0,
1{
0z
0y
1x
1w
1u
0t
0D
13
0H
0N
1L
1O
1U
0S
1]
0Z
1^
0O
1V
0^
#32000000
0"
b1111001 !
b1111000 !
b1111010 !
07
0g
1f
1b
08
1,
0{
1z
1v
1D
03
1H
0Y
0V
1Z
#32500000
b111010 !
b110010 !
b110011 !
1g
0d
0a
0,
1{
0x
0u
0D
13
1R
1O
0Z
1I
0U
1S
1Y
1V
0]
1Z
1^
#33500000
b10110011 !
b10110111 !
b10100111 !
b10000111 !
b10000101 !
b11000101 !
b11001101 !
b11001100 !
0g
0f
1e
1d
0c
0b
1a
1`
1,
0{
0z
1y
1x
0w
0v
1u
1t
1D
03
0H
1N
0L
0R
0O
0S
0V
1]
0Z
0^
1K
1O
1S
1^
0N
1L
0O
#34000000
1"
b1001100 !
b1001000 !
b1011000 !
b1111000 !
b1111010 !
b111010 !
b110010 !
b110011 !
17
1g
1f
0e
0d
1c
1b
0a
0`
18
0,
1{
1z
0y
0x
1w
1v
0u
0t
0D
13
1H
0L
1R
1O
1U
0S
1V
0]
1Z
0^
0K
0U
1S
0Y
0V
1^
1L
1Y
1V
1]
0Z
0]
1Z
0^
1^
1A
1<
1C
1B
09
0h
0i
1k
1j
0l
0\
0X
1Q
16
05
0^
0Z
1U
0S
0Y
0V
0O
1V
1Z
#34500000
b110111 !
b110101 !
b110100 !
0g
0f
1e
1,
0o
0n
1m
1D
03
0G
14
1K
1N
0L
0N
1L
1O
0O
#35000000
b10110100 !
b11110100 !
b11111100 !
b11111110 !
b11111111 !
1g
1f
1d
1a
1`
0,
1o
1n
1l
1i
1h
0D
13
1G
15
1X
1\
0K
1O
1]
0Z
1^
1N
0L
0^
0R
0O
1S
#35500000
b11011111 !
b1011111 !
b11111 !
b10111 !
b10101 !
0f
0d
0b
0a
0`
1,
0n
0l
0j
0i
0h
0G
05
06
0X
0\
0I
1R
1O
0V
0]
1Z
1^
0S
0^
#36000000
0"
b101 !
b1 !
b1000001 !
b1001001 !
b1001011 !
07
1f
0e
1d
0c
1a
08
0,
1n
0m
1l
0k
1i
1G
04
15
0Q
1X
1I
0N
1L
0R
0O
0U
1S
1]
0Z
1R
1O
1U
0S
1Y
1V
1^
0U
1S
0Y
0V
0]
1Z
1Y
1V
1]
0Z
0^
0]
1Z
1^
0^
#36500000
b1011011 !
b1011001 !
0f
1c
1,
0n
1k
0G
1Q
0I
1U
0S
0Y
0V
1]
0Z
1^
#37000000
b1011000 !
b1011100 !
b1010100 !
0g
1e
0d
0,
0o
1m
0l
1D
03
14
05
1K
1I
1N
0L
0O
0N
1L
1O
0O
#37500000
b1110100 !
b11110100 !
b10110100 !
b10100100 !
b10100101 !
b10100001 !
1g
0e
0c
1b
0a
1`
1,
1o
0m
0k
1j
0i
1h
0D
13
04
0Q
16
0X
1\
0K
0I
0L
0U
1S
1V
0]
1Z
0^
1L
0V
1^
#38000000
1"
b10100011 !
b100011 !
b110011 !
17
1f
1c
0`
18
0,
1n
1k
0h
1G
1Q
0\
1I
1U
0S
0^
1V
1=
0<
0C
1q
1>
1\
1X
0Q
0G
06
15
14
1^
1]
0Z
0U
1S
0I
0V
1O
1N
0L
0^
1Y
1V
0R
0O
0]
1Z
1U
0S
1^
0Y
0V
1]
0Z
0^
#38500000
b10011 !
b1010011 !
b11010011 !
b11000011 !
0c
0b
1a
1`
1,
#39000000
b11001011 !
b11001010 !
b11001110 !
b11001100 !
0g
0f
1e
1d
0,
0q
0\
0X
1Q
1G
16
05
04
1^
0]
1Z
1S
1I
1V
1R
1O
0N
1L
0^
0S
0O
#39500000
b11101100 !
b11111100 !
b11110100 !
0d
1c
1b
1,
#40000000
0"
b10110100 !
b10110110 !
b10010110 !
b10000110 !
07
1f
0c
0b
0a
08
0,
#40500000
b110 !
b111 !
b1111 !
b101111 !
1g
1d
1b
0`
1,
1q
1\
1X
0Q
0G
06
15
14
1^
1]
0Z
0U
1S
0I
0V
1O
1N
0L
0^
1Y
1V
0R
0O
0]
1Z
1U
0S
1^
0Y
0V
1]
0Z
0^
#41000000
b1101111 !
b1101101 !
b1100101 !
0f
0d
1a
0,
#41500000
b1110101 !
b1010101 !
b1010111 !
b1011111 !
1f
1d
1c
0b
1,
#42000000
1"
b1011110 !
b1001110 !
b1001100 !
17
0g
0f
0c
18
0,
0q
0\
0X
1Q
1G
16
05
04
1^
0]
1Z
1S
1I
1V
1R
1O
0N
1L
0^
0S
0O
1?
0=
1E
0@
0>
0_
1W
0T
0P
1M
0$
1&
0'
0(
1)
#42500000
b1001000 !
b11001000 !
b11101000 !
b11100000 !
b11110000 !
b11110010 !
1f
0e
0d
1c
1b
1`
1,
#43000000
b11110110 !
b1110110 !
b1111110 !
1e
1d
0`
0,
#43500000
b111110 !
b111100 !
b111000 !
b110000 !
0f
0e
0d
0a
1,
#44000000
0"
b100000 !
b100100 !
b101100 !
07
1e
1d
0c
08
0,
#44500000
b101101 !
b1101 !
b10001101 !
b11001101 !
b11011101 !
b11010101 !
1g
0d
1c
0b
1a
1`
1,
#45000000
b11010111 !
b1010111 !
b10111 !
1f
0a
0`
0,
#45500000
b10011 !
b110011 !
0e
1b
1,
#46000000
1"
b110010 !
b100010 !
b101010 !
b101000 !
b1101000 !
b1101100 !
b1001100 !
17
0g
0f
1e
1d
0c
0b
1a
18
0,
0A
0?
0E
0B
19
1@
0v
1x
1y
0{
1u
0w
0z
0V
1O
1N
0L
1D
03
1]
0Z
0U
1S
0H
0R
0O
1K
1^
1Y
1V
1U
0S
0N
1L
0]
1Z
0Y
0V
1R
1O
0^
1]
0Z
0U
1S
1^
1Y
1V
0]
1Z
0^
#46500000
b1011100 !
b1010100 !
b1010000 !
0e
0d
1c
1,
0y
0x
1w
0L
0O
1U
0S
0Y
0V
1]
0Z
1^
#47000000
b1010001 !
b1110001 !
b1111001 !
1g
1d
1b
0,
1{
1x
1v
0D
13
1O
1V
0K
0I
1L
#47500000
b11111001 !
b11111000 !
b11011000 !
b11010000 !
0g
0d
0b
1`
1,
0{
0x
0v
1t
1D
03
0O
0V
0^
1K
1I
0L
#48000000
0"
b11000000 !
b1000000 !
b1000001 !
b1100001 !
b1101001 !
07
1g
1d
0c
1b
0`
08
0,
1{
1x
0w
1v
0t
0D
13
1O
0U
1S
1V
1^
0K
0I
0V
1L
#48500000
b11101001 !
b11100001 !
0d
1`
1,
0x
1t
0O
0^
#49000000
b10100001 !
b10100101 !
b10110101 !
b10110100 !
b110100 !
b111100 !
0g
1e
1d
1c
0a
0`
0,
0{
1y
1x
1w
0u
0t
1D
03
1N
0L
1O
1U
0S
0]
1Z
1^
1K
1I
0R
0O
1V
0^
0N
1L
1S
1R
1O
0S
#49500000
b111110 !
b11110 !
1f
0b
1,
1z
0v
1H
0V
0K
0I
1N
0L
0R
0O
1S
#50000000
1"
b11100 !
b111100 !
17
0f
1b
18
0,
0z
1v
0H
1V
1K
1I
0N
1L
1R
1O
0S
1A
1<
1C
1B
09
0n
0o
1l
1m
0G
0D
15
14
0I
0R
0O
1N
0L
1S
1O
#50500000
b111101 !
b110101 !
b10101 !
1g
0d
0b
1,
1o
0l
0j
1D
05
06
0O
0V
#51000000
b10001 !
b10010001 !
b10010000 !
b10110000 !
0g
0e
1b
1`
0,
0o
0m
1j
1h
0D
04
16
1\
0N
1L
1V
1^
1R
1O
0S
#51500000
b11110000 !
b11110010 !
b11111010 !
b11111110 !
b1111110 !
b1011110 !
1f
1e
1d
0b
1a
0`
1,
1n
1m
1l
0j
1i
0h
1G
14
15
06
1X
0\
1I
1N
0L
0R
0O
0V
1]
0Z
0^
1O
1S
1^
#52000000
0"
b1011111 !
b11111 !
b10111 !
b10011 !
b110011 !
07
1g
0e
0d
1b
0a
08
0,
1o
0m
0l
1j
0i
1D
04
05
16
0X
0N
1L
0O
1V
0]
1Z
1R
1O
0^
0S
#53000000
b110001 !
b110000 !
b111000 !
b111100 !
0g
0f
1e
1d
1,
0o
0n
1m
1l
0D
0G
14
15
0I
1N
0L
0R
0O
1O
1S
#53500000
b11100 !
b11101 !
b10101 !
1g
0d
0b
0,
1o
0l
0j
1D
05
06
0O
0V
#54000000
b101 !
1"
b111 !
b11 !
b1011 !
1f
0e
1d
0c
17
18
1,
1n
0m
1l
0k
1G
04
15
0Q
1I
0N
1L
1O
0S
0O
1=
0<
0C
1q
1>
1\
1X
1Q
0G
16
05
14
1^
1]
0Z
1S
0I
1V
1R
1O
1N
0L
0^
0S
0R
0O
1S
#54500000
b10001011 !
b11001011 !
b11101011 !
b11101001 !
b11101101 !
b11100101 !
0f
1e
0d
1b
1a
1`
0,
#55000000
b11100100 !
b11110100 !
0g
1c
1,
0q
0\
0X
0Q
1G
06
15
04
1^
0]
1Z
0S
1I
0V
1O
0N
1L
0^
0O
#55500000
b10110100 !
b10010100 !
b10010000 !
b10011000 !
b10011001 !
1g
0e
1d
0b
0a
0,
1q
1\
1X
1Q
0G
16
05
14
1^
1]
0Z
1S
0I
1V
1R
1O
1N
0L
0^
0S
0R
0O
1S
#56000000
0"
b11001 !
b11011 !
b1011 !
b1001011 !
b1101011 !
b1101111 !
b1100111 !
b1100110 !
07
0g
1f
1e
0d
0c
1b
1a
0`
08
1,
0q
0\
0X
0Q
1G
06
15
04
1^
0]
1Z
0S
1I
0V
1O
0N
1L
0^
0O
#56500000
b11100110 !
b11110110 !
b10110110 !
b10010110 !
b10010010 !
b10011010 !
0e
1d
1c
0b
0a
1`
0,
#57000000
b10011000 !
b10011001 !
b11001 !
b11101 !
b10101 !
1g
0f
1e
0d
0`
1,
1q
1\
1X
1Q
0G
16
05
14
1^
1]
0Z
1S
0I
1V
1R
1O
1N
0L
0^
0S
0R
0O
1S
#57500000
b101 !
b1000101 !
b11000101 !
b11001101 !
1d
0c
1a
1`
0,
#58000000
1"
b11101101 !
b11111101 !
b10111101 !
17
1c
1b
0a
18
1,
1?
0=
1E
0@
0>
0[
1T
0M
0J
1F
0%
1'
0)
0*
1+
#58500000
b10111001 !
b10011001 !
0e
0b
0,
#59000000
b11001 !
0`
1,
#59500000
b10001 !
b1 !
b101 !
b10000101 !
1e
0d
0c
1`
0,
#60000000
b10000100 !
0"
b11000100 !
b11001100 !
0g
1d
1a
07
08
1,
#60500000
b11101100 !
b11111100 !
b1111100 !
b1111101 !
b111101 !
1g
1c
1b
0a
0`
0,
#61000000
b111111 !
b110111 !
b100111 !
b100110 !
b1100110 !
0g
1f
0d
0c
1a
1,
#61500000
b1100010 !
b1000010 !
b1001010 !
b1011010 !
b11010 !
0e
1d
1c
0b
0a
0,
#62000000
1"
b10011010 !
b10011000 !
b10011001 !
b10011101 !
b10111101 !
b10110101 !
b11110101 !
17
1g
0f
1e
0d
1b
1a
1`
18
1,
0A
0?
0E
0B
19
1@
1t
0x
1{
1u
1^
1R
1O
0D
13
1Z
0S
1I
#62500000
b11100101 !
b11100111 !
b11100110 !
b11000110 !
b10000110 !
0g
1f
0c
0b
0a
0,
0{
1z
0w
0v
0u
1D
03
1H
0U
1S
0V
0Z
1Y
1V
0]
1Z
0^
#63000000
b10000010 !
b10001010 !
b10101010 !
0e
1d
1b
1,
0y
1x
1v
0N
1L
0R
0O
0Y
0V
1R
1O
1U
0S
1]
0Z
0U
1S
1V
1^
0V
#63500000
b101010 !
b1010 !
0b
0`
0,
0v
0t
1Y
1V
0^
0]
1Z
1^
